{
    "code": 0,
    "data": {
        "content": [
            {
                "cate": 695,
                "cateStr": "教程",
                "commentCount": 0,
                "commentCountStr": "0",
                "contentCount": 0,
                "contentCountStr": "0",
                "cover": "https://img.zcool.cn/community/01b1335bbf4036a8012099c8655e44.jpg",
                "cover1x": "https://img.zcool.cn/community/01b1335bbf4036a8012099c8655e44.jpg@260w_195h_1c_1e_1o_100sh.jpg",
                "cover2x": "https://img.zcool.cn/community/01b1335bbf4036a8012099c8655e44.jpg@520w_390h_1c_1e_1o_100sh.jpg",
                "createTime": 1539260397000,
                "creator": 16627148,
                "creatorObj": {
                    "avatar": "https://img.zcool.cn/community/00b4af5a5f47bca8012113c7df9982.jpg",
                    "avatar1x": "https://img.zcool.cn/community/00b4af5a5f47bca8012113c7df9982.jpg@80w_80h_1c_1e_1o_100sh.jpg",
                    "avatar2x": "https://img.zcool.cn/community/00b4af5a5f47bca8012113c7df9982.jpg@160w_160h_1c_1e_1o_100sh.jpg",
                    "id": 16627148,
                    "memberType": 0,
                    "pageUrl": "https://www.zcool.com.cn/u/16627148",
                    "status": 1,
                    "username": "驴大萌"
                },
                "eventId": 0,
                "favoriteCount": 0,
                "favoriteCountStr": "0",
                "favoriteStatus": 0,
                "id": 198203,
                "objectType": 8,
                "objectTypeStr": "文章",
                "pageUrl": "https://www.zcool.com.cn/article/ZNzkyODEy.html",
                "publishTime": 1539260895000,
                "publishTimeDiffStr": "14小时前",
                "recommend": 1,
                "recommendCount": 0,
                "recommendCountStr": "0",
                "recommendTime": 1539312099000,
                "status": 1,
                "subCate": 612,
                "subCateStr": "纯艺术",
                "timeTitleStr": "审核通过时间：2018-10-11 20:28:15；创建时间：2018-10-11 20:19:57",
                "title": "【驴大萌彩铅教程180】手绘美食 草莓圣代冰淇淋",
                "trackCode": "",
                "type": 1,
                "typeStr": "原创",
                "viewCount": 0,
                "viewCountStr": "0"
            },
            
            {
                "cate": 607,
                "cateStr": "网页",
                "commentCount": 0,
                "commentCountStr": "0",
                "contentCount": 0,
                "contentCountStr": "0",
                "cover": "https://img.zcool.cn/community/01dd345bbffed6a8012099c8ceaeae.jpg",
                "cover1x": "https://img.zcool.cn/community/01dd345bbffed6a8012099c8ceaeae.jpg@260w_195h_1c_1e_1o_100sh.jpg",
                "cover2x": "https://img.zcool.cn/community/01dd345bbffed6a8012099c8ceaeae.jpg@520w_390h_1c_1e_1o_100sh.jpg",
                "createTime": 1539308520000,
                "creator": 17894634,
                "creatorObj": {
                    "avatar": "https://img.zcool.cn/community/031c4375bbc28e7a8012099c856710e.jpg",
                    "avatar1x": "https://img.zcool.cn/community/031c4375bbc28e7a8012099c856710e.jpg@80w_80h_1c_1e_1o_100sh.jpg",
                    "avatar2x": "https://img.zcool.cn/community/031c4375bbc28e7a8012099c856710e.jpg@160w_160h_1c_1e_1o_100sh.jpg",
                    "id": 17894634,
                    "memberType": 0,
                    "pageUrl": "https://www.zcool.com.cn/u/17894634",
                    "status": 1,
                    "username": "Gferry"
                },
                "designTime": 1539309360000,
                "eventId": 0,
                "favoriteCount": 0,
                "favoriteCountStr": "0",
                "favoriteStatus": 0,
                "id": 7668136,
                "objectType": 3,
                "objectTypeStr": "作品",
                "pageUrl": "https://www.zcool.com.cn/work/ZMzA2NzI1NDQ=.html",
                "publishTime": 1539311086000,
                "publishTimeDiffStr": "18分钟前",
                "recommend": 1,
                "recommendCount": 3,
                "recommendCountStr": "3",
                "recommendTime": 1539311956000,
                "status": 1,
                "subCate": 616,
                "subCateStr": "电商",
                "timeTitleStr": "审核通过时间：2018-10-12 10:24:46；创建时间：2018-10-12 09:42:00",
                "title": "产品包装效果展示",
                "trackCode": "",
                "type": 1,
                "typeStr": "原创",
                "viewCount": 6,
                "viewCountStr": "6"
            },
            {
                "cate": 707,
                "cateStr": "观点",
                "commentCount": 0,
                "commentCountStr": "0",
                "contentCount": 0,
                "contentCountStr": "0",
                "cover": "https://img.zcool.cn/community/01e25d5bbef1f7a801213dea1f1c87.jpg",
                "cover1x": "https://img.zcool.cn/community/01e25d5bbef1f7a801213dea1f1c87.jpg@260w_195h_1c_1e_1o_100sh.jpg",
                "cover2x": "https://img.zcool.cn/community/01e25d5bbef1f7a801213dea1f1c87.jpg@520w_390h_1c_1e_1o_100sh.jpg",
                "createTime": 1539240264000,
                "creator": 2699122,
                "creatorObj": {
                    "avatar": "https://img.zcool.cn/community/04d8b356ee5c740000018f1333383f.jpg",
                    "avatar1x": "https://img.zcool.cn/community/04d8b356ee5c740000018f1333383f.jpg@80w_80h_1c_1e_1o_100sh.jpg",
                    "avatar2x": "https://img.zcool.cn/community/04d8b356ee5c740000018f1333383f.jpg@160w_160h_1c_1e_1o_100sh.jpg",
                    "id": 2699122,
                    "memberType": 0,
                    "pageUrl": "https://sisendesign.zcool.com.cn",
                    "status": 1,
                    "username": "Mr_Cho"
                },
                "eventId": 0,
                "favoriteCount": 0,
                "favoriteCountStr": "0",
                "favoriteStatus": 0,
                "id": 198134,
                "objectType": 8,
                "objectTypeStr": "文章",
                "pageUrl": "https://www.zcool.com.cn/article/ZNzkyNTM2.html",
                "publishTime": 1539241200000,
                "publishTimeDiffStr": "19小时前",
                "recommend": 1,
                "recommendCount": 3,
                "recommendCountStr": "3",
                "recommendTime": 1539311898000,
                "status": 1,
                "subCate": 0,
                "subCateStr": "多领域",
                "timeTitleStr": "审核通过时间：2018-10-11 15:00:00；创建时间：2018-10-11 14:44:24",
                "title": "设计师在日本找工作指南",
                "trackCode": "",
                "type": 1,
                "typeStr": "原创",
                "viewCount": 87,
                "viewCountStr": "87"
            },
            {
                "cate": 607,
                "cateStr": "网页",
                "commentCount": 0,
                "commentCountStr": "0",
                "contentCount": 0,
                "contentCountStr": "0",
                "cover": "https://img.zcool.cn/community/01af8e5bbfff44a801213dea3aab8d.jpg",
                "cover1x": "https://img.zcool.cn/community/01af8e5bbfff44a801213dea3aab8d.jpg@260w_195h_1c_1e_1o_100sh.jpg",
                "cover2x": "https://img.zcool.cn/community/01af8e5bbfff44a801213dea3aab8d.jpg@520w_390h_1c_1e_1o_100sh.jpg",
                "createTime": 1539309153000,
                "creator": 14525737,
                "creatorObj": {
                    "avatar": "https://img.zcool.cn/community/00fee85a183247a8012171327dba40.jpg",
                    "avatar1x": "https://img.zcool.cn/community/00fee85a183247a8012171327dba40.jpg@80w_80h_1c_1e_1o_100sh.jpg",
                    "avatar2x": "https://img.zcool.cn/community/00fee85a183247a8012171327dba40.jpg@160w_160h_1c_1e_1o_100sh.jpg",
                    "id": 14525737,
                    "memberType": 0,
                    "pageUrl": "https://www.zcool.com.cn/u/14525737",
                    "status": 1,
                    "username": "罗文123"
                },
                "designTime": 1539302400000,
                "eventId": 0,
                "favoriteCount": 0,
                "favoriteCountStr": "0",
                "favoriteStatus": 0,
                "id": 7668212,
                "objectType": 3,
                "objectTypeStr": "作品",
                "pageUrl": "https://www.zcool.com.cn/work/ZMzA2NzI4NDg=.html",
                "publishTime": 1539311352000,
                "publishTimeDiffStr": "14分钟前",
                "recommend": 1,
                "recommendCount": 1,
                "recommendCountStr": "1",
                "recommendTime": 1539311843000,
                "status": 1,
                "subCate": 616,
                "subCateStr": "电商",
                "timeTitleStr": "审核通过时间：2018-10-12 10:29:12；创建时间：2018-10-12 09:52:33",
                "title": "汽车雨刮详情页策划方案",
                "trackCode": "",
                "type": 1,
                "typeStr": "原创",
                "viewCount": 8,
                "viewCountStr": "8"
            },
            {
                "cate": 1,
                "cateStr": "插画",
                "commentCount": 0,
                "commentCountStr": "0",
                "contentCount": 0,
                "contentCountStr": "0",
                "cover": "https://img.zcool.cn/community/01ea635bc008b5a8012099c8c59103.jpg",
                "cover1x": "https://img.zcool.cn/community/01ea635bc008b5a8012099c8c59103.jpg@260w_195h_1c_1e_1o_100sh.jpg",
                "cover2x": "https://img.zcool.cn/community/01ea635bc008b5a8012099c8c59103.jpg@520w_390h_1c_1e_1o_100sh.jpg",
                "createTime": 1539279382000,
                "creator": 16857833,
                "creatorObj": {
                    "avatar": "https://img.zcool.cn/community/00c7945ab16870a8012182074731b5.jpg",
                    "avatar1x": "https://img.zcool.cn/community/00c7945ab16870a8012182074731b5.jpg@80w_80h_1c_1e_1o_100sh.jpg",
                    "avatar2x": "https://img.zcool.cn/community/00c7945ab16870a8012182074731b5.jpg@160w_160h_1c_1e_1o_100sh.jpg",
                    "id": 16857833,
                    "memberType": 0,
                    "pageUrl": "https://www.zcool.com.cn/u/16857833",
                    "status": 1,
                    "username": "慇正"
                },
                "designTime": 1539279382000,
                "eventId": 0,
                "favoriteCount": 0,
                "favoriteCountStr": "0",
                "favoriteStatus": 0,
                "id": 7667599,
                "objectType": 3,
                "objectTypeStr": "作品",
                "pageUrl": "https://www.zcool.com.cn/work/ZMzA2NzAzOTY=.html",
                "publishTime": 1539304745000,
                "publishTimeDiffStr": "2小时前",
                "recommend": 2,
                "recommendCount": 1,
                "recommendCountStr": "1",
                "recommendTime": 1539311828000,
                "status": 1,
                "subCate": 3,
                "subCateStr": "涂鸦/潮流",
                "timeTitleStr": "审核通过时间：2018-10-12 08:39:05；创建时间：2018-10-12 01:36:22",
                "title": "风中之朝阳",
                "trackCode": "",
                "type": 1,
                "typeStr": "原创",
                "viewCount": 16,
                "viewCountStr": "16"
            },
            {
                "cate": 712,
                "cateStr": "资讯",
                "commentCount": 0,
                "commentCountStr": "0",
                "contentCount": 0,
                "contentCountStr": "0",
                "cover": "https://img.zcool.cn/community/01f2aa5bbf017da801213deaa43269.jpg",
                "cover1x": "https://img.zcool.cn/community/01f2aa5bbf017da801213deaa43269.jpg@260w_195h_1c_1e_1o_100sh.jpg",
                "cover2x": "https://img.zcool.cn/community/01f2aa5bbf017da801213deaa43269.jpg@520w_390h_1c_1e_1o_100sh.jpg",
                "createTime": 1539243559000,
                "creator": 17925800,
                "creatorObj": {
                    "avatar": "https://img.zcool.cn/community/01c3ee5bb78dbba801213dea251b6b.jpg",
                    "avatar1x": "https://img.zcool.cn/community/01c3ee5bb78dbba801213dea251b6b.jpg@80w_80h_1c_1e_1o_100sh.jpg",
                    "avatar2x": "https://img.zcool.cn/community/01c3ee5bb78dbba801213dea251b6b.jpg@160w_160h_1c_1e_1o_100sh.jpg",
                    "id": 17925800,
                    "memberType": 0,
                    "pageUrl": "https://www.zcool.com.cn/u/17925800",
                    "status": 1,
                    "username": "蔚天建筑摄影"
                },
                "eventId": 0,
                "favoriteCount": 0,
                "favoriteCountStr": "0",
                "favoriteStatus": 0,
                "id": 198141,
                "objectType": 8,
                "objectTypeStr": "文章",
                "pageUrl": "https://www.zcool.com.cn/article/ZNzkyNTY0.html",
                "publishTime": 1539244732000,
                "publishTimeDiffStr": "18小时前",
                "recommend": 1,
                "recommendCount": 2,
                "recommendCountStr": "2",
                "recommendTime": 1539311815000,
                "status": 1,
                "subCate": 0,
                "subCateStr": "多领域",
                "timeTitleStr": "审核通过时间：2018-10-11 15:58:52；创建时间：2018-10-11 15:39:19",
                "title": "蔚天建筑摄影 | 泡澡都戴钻的性感天后为他飙歌，而我只想纪实这裸露美",
                "trackCode": "",
                "type": 1,
                "typeStr": "原创",
                "viewCount": 17,
                "viewCountStr": "17"
            }
        ],
        "first": false,
        "last": false,
        "loadNumber": 1,
        "number": 1,
        "numberOfElements": 10,
        "pageable": {
            "limit": 10,
            "loadIndex": 1,
            "loadNumber": 1,
            "loadSize": 10,
            "offset": 0,
            "pageIndex": 1,
            "pageNumber": 1,
            "pageSize": 10
        },
        "size": 10,
        "total": 99169,
        "totalContent": 0,
        "totalElements": 99169,
        "totalPages": 9917
    },
    "msg": "success"
}